Kootenay Lake Data • kootlake
…
      Allometry of Kootenay Lake Rainbow Trout

  Changelog

Kootenay Lake Data

kootlake is an R package of annual Rainbow Trout, Bull Trout and Kokanee datasets for Kootenay Lake. The data is provided by the Ministry of Forests, Lands and Natural Resources Operations, British Columbia.

It provides a data set of individual fish length, weight, sex and fecundity information.

library(tibble)
library(kootlake)
kootlake::fish
#> # A tibble: 1,843 x 12
#>     Year Month   Day Species Length Weight Sex   Fecundity Location
#>    <dbl> <dbl> <dbl> <chr>    <dbl>  <dbl> <chr>     <dbl> <chr>   
#>  1  1966     1     2 RB         580    2.8 <NA>         NA <NA>    
#>  2  1966     1     5 RB         650    3.6 <NA>         NA <NA>    
#>  3  1966     1     7 RB         420    0.8 <NA>         NA <NA>    
#>  4  1966     1     8 RB         600    3.1 <NA>         NA <NA>    
#>  5  1966     1     8 RB         630    3.6 <NA>         NA <NA>    
#>  6  1966     1    15 RB         710    4.6 <NA>         NA <NA>    
#>  7  1966     1    18 RB         737    6.4 <NA>         NA <NA>    
#>  8  1966     1    18 RB         620    3   <NA>         NA <NA>    
#>  9  1966     1    22 RB         500    1.7 <NA>         NA <NA>    
#> 10  1966     1    30 RB         680    5.2 <NA>         NA <NA>    
#> # … with 1,833 more rows, and 3 more variables: SampleID <dbl>,
#> #   Source <chr>, Comment <chr>
…
